{
    "$schema": "https://schema.management.azure.com/schemas/2015-01-01/deploymentTemplate.json#",
    "contentVersion": "1.0.0.0",
    "parameters": {
        "RG_NAME": {
            "type": "string"
          },
          "RG_LOCATION": {
            "type": "string"
          },
          "REGISTRATION_TOKEN": {
            "type": "string"
          },
          "GITLAB_SERVER_URL": {
            "type": "string"
          }
    },
    "variables": {},
    "resources": [
        {
            "location": "[parameters('RG_LOCATION')]",
            "name": "[concat(parameters('RG_NAME'), '-container-instance')]",
            "type": "Microsoft.ContainerInstance/containerGroups",
            "apiVersion": "2018-10-01",
            "identity": {
                "type": "SystemAssigned"
            },
            "properties": {
                "containers": [
                    {
                        "name": "[concat(parameters('RG_NAME'), '-container-instance-containers')]",
                        "properties": {
                            "image": "homelyferob/aventus-gitlab-terraform:latest",
                            "resources": {
                                "requests": {
                                    "cpu": "1",
                                    "memoryInGB": "1.5"
                                }
                            },
                            "environmentVariables": {
                                "value": [
                                    {
                                        "name": "REGISTRATION_TOKEN",
                                        "value": "[parameters('REGISTRATION_TOKEN')]"
                                    },
                                    {
                                        "name": "CI_SERVER_URL",
                                        "value": "[parameters('GITLAB_SERVER_URL')]"
                                    }
                                ]
                            }
                        }
                    }
                ],
                "restartPolicy": "OnFailure",
                "osType": "Linux"
            },
            "tags": {}
        }
    ],
    "outputs": {
        "principalId": {
            "value": "[reference(concat(resourceId('Microsoft.ContainerInstance/containerGroups/', concat(parameters('RG_NAME'), '-container-instance')), '/providers/Microsoft.ManagedIdentity/Identities/default'),'2015-08-31-PREVIEW').principalId]",
            "type": "string"
        }
    }
}