{
    "$schema": "https://schema.management.azure.com/schemas/2015-01-01/deploymentParameters.json#",
    "contentVersion": "1.0.0.0",
    "parameters": {
        "containerName": {
            "value": "rob-container-test"
        },
        "location": {
            "value": "northeurope"
        },
        "imageType": {
            "value": "Public"
        },
        "imageName": {
            "value": "homelyferob/aventus-gitlab-terraform:latest"
        },
        "osType": {
            "value": "Linux"
        },
        "numberCpuCores": {
            "value": "1"
        },
        "memory": {
            "value": "1.5"
        },
        "restartPolicy": {
            "value": "OnFailure"
        },
        "environmentVariables": {
            "value": [
                {
                    "name": "REGISTRATION_TOKEN",
                    "value": ""
                },
                {
                    "name": "CI_SERVER_URL",
                    "value": ""
                }
            ]
        }
    }
}